<svg width="44" height="16" viewBox="0 0 44 16" fill="none" xmlns="http://www.w3.org/2000/svg">
<path d="M9.98152 15.8948C12.5489 15.8948 14.63 13.8135 14.63 11.2462C14.63 8.67883 12.5489 6.5976 9.98152 6.5976C7.41419 6.5976 5.33301 8.67883 5.33301 11.2462C5.33301 13.8135 7.41419 15.8948 9.98152 15.8948Z" fill="#F49D37"/>
<path d="M33.8521 15.6435C35.5174 15.6435 36.8673 14.2936 36.8673 12.6283C36.8673 10.963 35.5174 9.61298 33.8521 9.61298C32.1868 9.61298 30.8369 10.963 30.8369 12.6283C30.8369 14.2936 32.1868 15.6435 33.8521 15.6435Z" fill="#F49D37"/>
<path d="M42.5837 11.3719L41.6414 10.9321C40.5107 10.4296 39.3171 9.92703 38.1235 9.4873C38.8145 10.3668 39.1916 11.4975 39.1916 12.6282C39.1916 13.1308 39.1289 13.6333 39.0032 14.0731H39.5685L42.5208 13.1308C43.3375 12.8795 43.4004 11.7488 42.5837 11.3719Z" fill="#F49D37"/>
<path d="M32.0307 7.66554C29.6435 7.10017 27.2564 6.72326 24.8065 6.47199C24.6181 4.96434 22.6079 3.77078 20.158 3.77078C20.0324 3.77078 19.9067 3.77078 19.781 3.77078V0.25293C17.2055 0.25293 13.6876 1.25803 11.3005 2.76567L9.03898 2.89132L0.872559 0.504219L2.69424 9.67572L3.32242 9.86419C3.88779 7.03735 6.21214 4.8387 9.03898 4.46178H9.10186C9.41595 4.39897 9.66716 4.39896 9.98126 4.39896C10.421 4.39896 10.8607 4.46179 11.2376 4.52461H11.3634C14.5043 5.15279 16.8284 7.91682 16.8284 11.1834C16.8284 12.1885 16.5772 13.1936 16.2002 14.073H28.8268C28.7012 13.6333 28.6385 13.1308 28.6385 12.6282C28.5757 10.3667 30.0205 8.41936 32.0307 7.66554Z" fill="#F49D37"/>
</svg>
