<svg width="23" height="33" viewBox="0 0 23 33" fill="none" xmlns="http://www.w3.org/2000/svg">
<path d="M18.9253 0.646057H4.84498C2.59214 0.646057 0.777344 2.46085 0.777344 4.7137V28.9318C0.777344 31.1846 2.59214 32.9994 4.84498 32.9994H18.9253C21.1781 32.9994 22.9929 31.1846 22.9929 28.9318V4.7137C22.9929 2.52343 21.1781 0.646057 18.9253 0.646057ZM4.21919 6.46591C4.21919 5.5898 4.9702 4.83885 5.84631 4.83885H18.0492C18.9253 4.83885 19.6763 5.5898 19.6763 6.46591V10.4084C19.6763 11.2845 18.9253 12.0354 18.0492 12.0354H5.84631C4.9702 12.0354 4.21919 11.2845 4.21919 10.4084V6.46591ZM5.97159 28.9318C4.97032 28.9318 4.21919 28.1183 4.21919 27.1796C4.21919 26.1783 5.0329 25.4274 5.97159 25.4274C6.97285 25.4274 7.72368 26.2409 7.72368 27.1796C7.72368 28.1183 6.91027 28.9318 5.97159 28.9318ZM5.97159 23.4248C4.97032 23.4248 4.21919 22.6113 4.21919 21.6726C4.21919 20.6713 5.0329 19.9204 5.97159 19.9204C6.97285 19.9204 7.72368 20.7339 7.72368 21.6726C7.72368 22.6739 6.91027 23.4248 5.97159 23.4248ZM5.97159 17.7927C4.97032 17.7927 4.21919 16.9792 4.21919 16.0405C4.21919 15.0392 5.0329 14.2883 5.97159 14.2883C6.97285 14.2883 7.72368 15.1018 7.72368 16.0405C7.72368 16.9792 6.91027 17.7927 5.97159 17.7927ZM11.854 28.9318C10.8527 28.9318 10.1016 28.1183 10.1016 27.1796C10.1016 26.1783 10.9153 25.4274 11.854 25.4274C12.8552 25.4274 13.606 26.2409 13.606 27.1796C13.6686 28.1183 12.8552 28.9318 11.854 28.9318ZM11.854 23.4248C10.8527 23.4248 10.1016 22.6113 10.1016 21.6726C10.1016 20.6713 10.9153 19.9204 11.854 19.9204C12.8552 19.9204 13.606 20.7339 13.606 21.6726C13.6686 22.6739 12.8552 23.4248 11.854 23.4248ZM11.854 17.7927C10.8527 17.7927 10.1016 16.9792 10.1016 16.0405C10.1016 15.0392 10.9153 14.2883 11.854 14.2883C12.8552 14.2883 13.606 15.1018 13.606 16.0405C13.6686 16.9792 12.8552 17.7927 11.854 17.7927ZM17.799 28.9318C16.7977 28.9318 16.0466 28.1183 16.0466 27.1796C16.0466 26.1783 16.8603 25.4274 17.799 25.4274C18.7377 25.4274 19.5511 26.2409 19.5511 27.1796C19.5511 28.1183 18.8002 28.9318 17.799 28.9318ZM17.799 23.4248C16.7977 23.4248 16.0466 22.6113 16.0466 21.6726C16.0466 20.6713 16.8603 19.9204 17.799 19.9204C18.7377 19.9204 19.5511 20.7339 19.5511 21.6726C19.5511 22.6739 18.8002 23.4248 17.799 23.4248ZM17.799 17.7927C16.7977 17.7927 16.0466 16.9792 16.0466 16.0405C16.0466 15.0392 16.8603 14.2883 17.799 14.2883C18.7377 14.2883 19.5511 15.1018 19.5511 16.0405C19.5511 16.9792 18.8002 17.7927 17.799 17.7927Z" fill="#3471EB"/>
</svg>
