<svg width="27" height="23" viewBox="0 0 27 23" fill="none" xmlns="http://www.w3.org/2000/svg">
<path d="M16.0382 13.4256H11.2996C11.089 13.4256 10.8784 13.215 10.8784 13.0044V10.6877C10.8784 10.4771 11.089 10.2665 11.2996 10.2665H16.0382C16.2488 10.2665 16.4594 10.4771 16.4594 10.6877V13.0044C16.4594 13.215 16.2488 13.4256 16.0382 13.4256Z" fill="#3471EB"/>
<path d="M17.9338 14.268C17.9338 14.6892 17.6179 15.0051 17.1967 15.0051H9.93088C9.50968 15.0051 9.19377 14.6892 9.19377 14.268V10.2665H0.243164V22.6921H26.7791V10.2665H17.8285V14.268H17.9338Z" fill="#3471EB"/>
<path d="M23.7249 3.63258V1.73716H20.5658V3.63258H17.9333V1.00005C17.9333 0.578844 17.6174 0.262939 17.1962 0.262939H9.93039C9.50919 0.262939 9.19328 0.578844 9.19328 1.00005V3.63258H6.56075V1.73716H3.40171V3.63258H0.242676V8.68704H26.7786V3.63258H23.7249ZM16.4591 3.31668C16.4591 3.52728 16.3538 3.63258 16.1432 3.63258H11.194C10.9834 3.63258 10.8781 3.52728 10.8781 3.31668V2.15836C10.8781 1.94776 10.9834 1.84246 11.194 1.84246H16.1432C16.3538 1.84246 16.4591 1.94776 16.4591 2.15836V3.31668Z" fill="#3471EB"/>
</svg>
