<svg width="38" height="28" viewBox="0 0 38 28" fill="none" xmlns="http://www.w3.org/2000/svg">
<path d="M32.0827 2.12488H6.24268V20.5462H32.0827V2.12488Z" fill="#D0D0D2"/>
<path d="M32.0827 20.5462V2.12488H6.24268L32.0827 20.5462Z" fill="#DFDFE1"/>
<path d="M32.0834 2.12479V20.5461H6.24333V2.12479H32.0834ZM34.0953 0.112915H4.23145V22.5579H34.0953V0.112915Z" fill="#F28574"/>
<path d="M0.711426 25.7015H37.554" stroke="#EA3317" stroke-width="4" stroke-miterlimit="10"/>
</svg>
