<svg width="36" height="32" viewBox="0 0 36 32" fill="none" xmlns="http://www.w3.org/2000/svg">
<path d="M13.1837 28.9968H0.501465V31.8992H13.1837V28.9968Z" fill="#82C56C"/>
<path d="M35.2042 28.9968H22.522V31.8992H35.2042V28.9968Z" fill="#82C56C"/>
<path d="M35.2042 21.236V26.6623H22.5219V20.9205H13.1837V26.6623H0.501465V21.236L5.17056 5.1466H8.00987V0.351318H14.8873V5.1466H20.8814V0.351318H27.7589V5.1466H30.5351L35.2042 21.236Z" fill="#D0D0D2"/>
<path d="M35.2045 21.236V26.6623L5.1709 5.1466H8.01021V0.351318H14.8877V5.1466H20.8818V0.351318H27.7592V5.1466H30.5354L35.2045 21.236Z" fill="#DFDFE1"/>
<path d="M14.8872 0.351318H8.00977V5.1466H14.8872V0.351318Z" fill="#2BAE16"/>
<path d="M27.7588 0.351318H20.8813V5.1466H27.7588V0.351318Z" fill="#2BAE16"/>
</svg>
