<svg width="34" height="30" viewBox="0 0 34 30" fill="none" xmlns="http://www.w3.org/2000/svg">
<path d="M31.4694 16.6479C31.4694 20.3573 30.0862 23.6895 27.8228 26.2672H6.19512C3.93175 23.6895 2.54858 20.3573 2.54858 16.6479C2.54858 13.1272 3.80601 9.85785 5.94363 7.343C8.58422 4.19944 12.608 2.18756 17.009 2.18756C24.9936 2.18756 31.4694 8.6633 31.4694 16.6479Z" fill="#D0D0D2"/>
<path d="M31.4679 16.6479C31.4679 20.3573 30.0847 23.6895 27.8213 26.2672L5.94214 7.40584C8.58273 4.26227 12.6065 2.25039 17.0075 2.25039C24.9921 2.18752 31.4679 8.66326 31.4679 16.6479Z" fill="#DFDFE1"/>
<path d="M17.0067 2.18755C24.9913 2.18755 31.4671 8.66329 31.4671 16.6479C31.4671 20.3573 30.0839 23.6895 27.8205 26.2672H6.19284C3.92948 23.6895 2.54631 20.3573 2.54631 16.6479C2.54631 8.66329 9.02205 2.18755 17.0067 2.18755ZM17.0067 0.0499268C7.8275 0.0499268 0.408691 7.46873 0.408691 16.6479C0.408691 20.7346 1.9176 24.6326 4.62106 27.6504L5.24978 28.342H6.19284H27.8205H28.7636L29.3923 27.6504C32.0958 24.6326 33.6047 20.6717 33.6047 16.6479C33.6047 7.5316 26.1859 0.0499268 17.0067 0.0499268Z" fill="#F28574"/>
<path d="M18.3894 19.7286C16.6918 20.4831 14.68 19.7286 13.9255 18.0311C13.1711 16.3336 13.9255 14.3217 15.623 13.5672C16.6918 13.0643 17.8864 13.19 18.7666 13.7559L25.6824 8.47467L27.1285 10.3608L20.2126 15.642C20.7156 17.2766 19.9611 19.037 18.3894 19.7286Z" fill="#EA3317"/>
<path d="M2.54858 27.4618H31.4694" stroke="#EA3317" stroke-width="4" stroke-miterlimit="10"/>
</svg>
