<svg width="40" height="27" viewBox="0 0 40 27" fill="none" xmlns="http://www.w3.org/2000/svg">
<path d="M35.0075 0.776063C30.1889 1.96506 24.6821 7.78491 21.9912 11.7274C21.8034 10.9764 21.428 10.4758 21.1151 10.1003C21.428 9.3494 22.3667 7.28427 23.2428 6.40817C24.3692 5.34432 25.746 2.84117 25.5583 2.02764C25.4957 1.52701 25.1202 1.33927 24.8699 1.33927C24.557 1.33927 24.3067 1.58959 24.2441 1.96506C24.2441 2.34054 23.6182 4.28049 22.617 5.34434C21.5531 6.47076 21.0524 7.47202 20.6143 8.7236L20.552 8.91133C20.4894 9.16164 20.364 9.34938 20.3014 9.53712C20.2388 9.53712 20.239 9.53712 20.1764 9.53712H20.1138C20.1138 9.53712 20.0511 9.53712 19.9885 9.53712C19.9259 9.34938 19.8634 9.16164 19.7383 8.91133L19.6756 8.7236C19.2376 7.47202 18.7371 6.47076 17.6733 5.34434C16.672 4.28049 16.0462 2.34054 16.0462 1.96506C16.0462 1.65217 15.7333 1.33927 15.4204 1.33927C15.1701 1.33927 14.7945 1.52701 14.7319 2.02764C14.6068 2.84117 15.9211 5.34432 17.0475 6.40817C17.9236 7.22169 18.8622 9.3494 19.1751 10.1003C18.8622 10.4758 18.4868 10.9764 18.2991 11.7274C15.5456 7.78491 10.101 1.96506 5.28245 0.776063C0.0258143 -0.538096 0.776885 0.901219 1.0272 1.8399C1.27752 2.77859 1.27758 3.52955 2.34142 5.40692C3.40527 7.28429 4.34395 9.9126 4.21879 11.4771C4.09364 13.0415 5.90831 14.3557 7.53536 14.3557C9.16242 14.3557 3.96848 16.3582 7.03485 21.6149C10.1012 26.8715 12.5419 26.1206 13.3554 26.1206C15.045 26.1206 17.9236 21.5523 19.2378 19.2995C19.4881 21.3646 19.0499 22.1155 19.1125 22.9916C19.1751 24.1806 19.3629 25.2445 19.8636 25.2445H20.4893C20.9274 25.2445 21.1775 24.1806 21.2401 22.9916C21.3027 22.1155 20.8648 21.3646 21.1151 19.2995C22.4293 21.5523 25.3079 26.1206 26.9975 26.1206C27.811 26.1206 30.2517 26.9341 33.318 21.6149C36.3844 16.3582 31.2528 14.3557 32.8172 14.3557C34.3817 14.3557 36.2593 13.0415 36.1341 11.4771C36.0089 9.9126 36.9476 7.22171 38.0115 5.40692C39.0753 3.52955 39.0754 2.77859 39.3257 1.8399C39.5134 0.901219 40.2641 -0.538096 35.0075 0.776063Z" fill="#3471EB"/>
</svg>
