<svg width="21" height="36" viewBox="0 0 21 36" fill="none" xmlns="http://www.w3.org/2000/svg">
<path d="M17.9381 0.837036L20.462 0.900132L11.8179 13.0776H20.2096L0.0820312 35.4135L16.7393 14.5919H8.97854L17.9381 0.837036Z" fill="#2BAE16"/>
</svg>
